"age","occupation","native_languages","native_languages_3_TEXT","other_languages","vision_impairment","vision_impairment_2_TEXT","learning_disability","learning_disability_1_TEXT","br_familiarity","ep_certifications","ep_certifications_1_TEXT","ep_certifications_2_TEXT","ep_certifications_3_TEXT","ep_certifications_4_TEXT","article_comfort","leisure_frequency","work_frequency","time_epf_text1_Page.Submit","epf_t1_q1","epf_t1_q2","epf_t1_q3","epf_t1_q4","time_epf_text2_Page.Submit","epf_t2_q1","epf_t2_q2","epf_t2_q3","epf_t2_q4","time_uwr_traditional_Page.Submit","uwr_q1","uwr_q2","uwr_q3","uwr_q4","uwr_q5","uwr_q6","uwr_q7","uwr_q8","uwr_q9","uwr_q10","time_break_study_Page.Submit","time_ws_bionic_Page.Submit","ws_q1","ws_q2","ws_q3","ws_q4","ws_q5","ws_q6","ws_q7","ws_q8","ws_q9","ws_q10","time_ws_traditional_Page.Submit","time_uwr_bionic_Page.Submit","difficulty_reading","which_text_faster","method_preference","open_bionic_reading","open_strategy_differ","open_research","SC0","SC1","SC2","SC3","SC4","FL_24_DO","FL_42_DO","FL_37_DO"
"What is your age?","What is your occupation? (e.g. University Student)","What is/are your native language(s) - Selected Choice","What is/are your native language(s) - Else, namely - Text","What other languages do you speak?","Regarding your vision, do you currently wear glasses or contact lenses to correct a refractive error or vision impairment? - Selected Choice","Regarding your vision, do you currently wear glasses or contact lenses to correct a refractive error or vision impairment? - Yes I have a vision impairment, namely - Text","Have you ever been diagnosed with a reading or learning disability (e.g., dyslexia)? If yes,
which one and how long ago? - Selected Choice","Have you ever been diagnosed with a reading or learning disability (e.g., dyslexia)? If yes,
which one and how long ago? - Yes, namely - Text","How familiar are you with Bionic Reading?","What certifications do you possess that assess your English Proficiency level? (Multiple choices are possible) - Selected Choice","What certifications do you possess that assess your English Proficiency level? (Multiple choices are possible) - High school certificate for English on the level of (VWO, HAVO): - Text","What certifications do you possess that assess your English Proficiency level? (Multiple choices are possible) - Cambridge certificate for level: - Text","What certifications do you possess that assess your English Proficiency level? (Multiple choices are possible) - Anglia certificate for the level of: - Text","What certifications do you possess that assess your English Proficiency level? (Multiple choices are possible) - Other, namely: - Text","Do you feel comfortable with reading articles written in English?","How often do you read English written articles for leisure or personal interest?","How often do you read English written articles for work or study?","Timing - Page Submit","Which of the following federal programs was not mentioned?","State and local governments were said to spend___.","The best title for this passage would be","The Federal government apparently does not help the states in the area of ___.","Timing - Page Submit","Economics was definitely said to involve______.","The passage mentions______.","The purpose of this passage is _______.","Chief emphasis is on the______.","Timing - Page Submit","What is Miguel Diaz doing in the text?","What does Miguel say about the ROV?","What was Miguel’s attitude towards diving?","What effect has the trip had on Miguel?","What might Miguel write in his diary about the trip?","What was the name of the lead scientist that led the research?","How deep undersea where the Garden Flowers?","What is the exact title of this text?","According to the text, where are the Flower Gardens situated?","How many days did the team spent on a boat?","Timing - Page Submit","Timing - Page Submit","What is Dan trying to do in this text about barefoot water-skiing?","Dan started barefoot water-skiing when","What does Dan think are the disadvantages of barefoot water-skiing ?","How does Dan feel about skiing in rough water?","What might Dan write to a friend about his barefoot water-skiing?","Who used to take Dan water-skiing?","How fast are you going when water-skiing?","What is the exact title of this text?","Where does Dan go water-skiing?","What move is awesome according to the text?","Timing - Page Submit","Timing - Page Submit","What level of difficulty in reading did you find these texts?","Which one did you read faster, do you think?","Do you have a preference between the two reading methods?","What do you think of Bionic Reading in general?","Did your reading strategy differ between the two conditions, if so how?","Do you have anything to say about the research as a whole?","Nelson-Denny","Underwater Research Comprehension","Water-Skiing Comprehension","Underwater Research Recall","Water-Skiing Recall","FL_24 - Block Randomizer - Display Order","FL_42 - Block Randomizer - Display Order","FL_37 - Block Randomizer - Display Order"
"{""ImportId"":""QID3_TEXT""}","{""ImportId"":""QID5_TEXT""}","{""ImportId"":""QID4""}","{""ImportId"":""QID4_3_TEXT""}","{""ImportId"":""QID7_TEXT""}","{""ImportId"":""QID6""}","{""ImportId"":""QID6_2_TEXT""}","{""ImportId"":""QID31""}","{""ImportId"":""QID31_1_TEXT""}","{""ImportId"":""QID12""}","{""ImportId"":""QID16""}","{""ImportId"":""QID16_1_TEXT""}","{""ImportId"":""QID16_2_TEXT""}","{""ImportId"":""QID16_3_TEXT""}","{""ImportId"":""QID16_4_TEXT""}","{""ImportId"":""QID29""}","{""ImportId"":""QID32""}","{""ImportId"":""QID33""}","{""ImportId"":""QID78_PAGE_SUBMIT""}","{""ImportId"":""QID18""}","{""ImportId"":""QID19""}","{""ImportId"":""QID20""}","{""ImportId"":""QID21""}","{""ImportId"":""QID81_PAGE_SUBMIT""}","{""ImportId"":""QID24""}","{""ImportId"":""QID25""}","{""ImportId"":""QID26""}","{""ImportId"":""QID27""}","{""ImportId"":""QID83_PAGE_SUBMIT""}","{""ImportId"":""QID45""}","{""ImportId"":""QID46""}","{""ImportId"":""QID47""}","{""ImportId"":""QID48""}","{""ImportId"":""QID49""}","{""ImportId"":""QID92""}","{""ImportId"":""QID94""}","{""ImportId"":""QID98""}","{""ImportId"":""QID99""}","{""ImportId"":""QID100""}","{""ImportId"":""QID84_PAGE_SUBMIT""}","{""ImportId"":""QID85_PAGE_SUBMIT""}","{""ImportId"":""QID58""}","{""ImportId"":""QID59""}","{""ImportId"":""QID60""}","{""ImportId"":""QID61""}","{""ImportId"":""QID62""}","{""ImportId"":""QID96""}","{""ImportId"":""QID95""}","{""ImportId"":""QID97""}","{""ImportId"":""QID102""}","{""ImportId"":""QID101""}","{""ImportId"":""QID86_PAGE_SUBMIT""}","{""ImportId"":""QID87_PAGE_SUBMIT""}","{""ImportId"":""QID38""}","{""ImportId"":""QID39""}","{""ImportId"":""QID40""}","{""ImportId"":""QID42_TEXT""}","{""ImportId"":""QID35_TEXT""}","{""ImportId"":""QID73_TEXT""}","{""ImportId"":""SC_e5rUgHflm3qviIe""}","{""ImportId"":""SC_1HTdRFBIobm1HaS""}","{""ImportId"":""SC_dmwNUgSQ0TqLN0W""}","{""ImportId"":""SC_cNQ7DOlhvd4k0gC""}","{""ImportId"":""SC_3IPnXnz1Z4OHWm2""}","{""ImportId"":""FL_24_DO""}","{""ImportId"":""FL_42_DO""}","{""ImportId"":""FL_37_DO""}"
"22","University Student","Dutch","","English (fluent), Spanish (conversational), German (conversational)","No I do not wear glasses or contact lenses and do not have a vision impairment","","No","","Slightly","Cambridge certificate for level:","","Advanced English (C1)","","","Definitely yes","1-3 times a week","1-3 times a week","50.913","Redevelopment","$250 billion","Government Spending","Manpower training","42.954","Satisfying our needs","Scarcity","To make clear","What","","describing the part he played in a science project","It was an expensive piece of equipment.","His feelings changed once he was in the water.","It has made him a lot more interested in the sea.","Going to the Flower Gardens was great fun. I now know much more about science but I realise there’s still a lot more to learn.","Dr. Benjamin Mitchell","20 metres deep","Under-water study","In the Gulf of Mexico","5","14.256","","suggest the best ways to begin learning his sport","he was taught how to do it by his cousin.","If your feet hit something in the water, it’s painful.","certain of his ability to handle difficult conditions","It’s a fantastic water sport to watch – it’s just a shame more people don’t enjoy going to see it.","His cousin","50 miles per hour","Water-skiing barefoot","A lake","A jump","68.358","78.557","Very easy","Bionic Reading","Bionic Reading","It feels easier to read and keeps me more focussed on the text","No, not really","-","4","3","1","1","4","FL_42","FL_44",""
"23","University student","Else, namely","Croatian","English, Italian","No I do not wear glasses or contact lenses and do not have a vision impairment","","No","","Slightly","Other, namely:","","","","IELTS 8.5","Definitely yes","Daily","Daily","90.957","Housing","$250 billion","Federal Wastefulness","Education","102.792","Satisfying our needs","Scarcity","To make clear","What","102.773","describing the part he played in a science project","It recorded what was happening under water.","His feelings changed once he was in the water.","It has changed his opinion of science.","Going to the Flower Gardens was great fun. I now know much more about science but I realise there’s still a lot more to learn.","Dr. Christopher Williams","30 metres deep","Underwater research","In the Gulf of Mexico","5","66.118","97.1","describe what he does to get better at his sport","he tried it out just for fun","If your feet hit something in the water, it’s painful.","unwilling to try anything he hasn’t practised before","It’s a fantastic water sport to watch – it’s just a shame more people don’t enjoy going to see it.","His friend","40 miles per hour","Water-skiing on bare feet","A lake","A jump","","","Very easy","Bionic Reading","Traditional","I assume it might be useful if i knew how to fully take advantage of the way you are supposed to read such text, but overall in my opinion i did not notice a difference compared to traditional reading.","I dont think so, since im not too familiar with the bionic reading strategy i just read it normally.","Some of the practice texts had spelling errors in them and it overall felt like an IELTS test, but i am curious what the results are going to be, good luck!","3","4","4","3","3","FL_37","","FL_41"
"24","University student","Dutch","","English","No I do not wear glasses or contact lenses and do not have a vision impairment","","Yes, namely","Dyslexia","Slightly","High school certificate for English on the level of (VWO, HAVO):","HAVO","","","","Definitely yes","1-3 times a week","1-3 times a week","63.352","Retirement","$20 billion","Government Spending","Public safety","94.301","Satisfying our needs","Scarcity","To make clear","What","","describing the part he played in a science project","It was an expensive piece of equipment.","His feelings changed once he was in the water.","It has encouraged him to work towards his goals.","Going to the Flower Gardens was great fun. I now know much more about science but I realise there’s still a lot more to learn.","Dr. Jonathan Davis","30 metres deep","Underwater research","In the Gulf of Mexico","3","30.143","","convince people that his sport is both safe and easy","he tried it out just for fun","If your feet hit something in the water, it’s painful.","unwilling to try anything he hasn’t practised before","The boat travels along in the water at quite a speed, but it’s not as frightening as you’d think!","His cousin","40 miles per hour","Water-skiing barefoot","A lake","A jump","59.515","153.181","Not difficult or easy","Traditional","Traditional","I personally hate it, i read much slower since my brain focusses to much on the bold parts which makes one word into two separate words in my head","no","That i am horrible at remembering a text after just a simple but thorough readtrough, so i had a lot of trouble answering the questions about the text since i cannot remember such details about a text after simply reading it.","6","4","4","4","5","FL_37","","FL_40"
"22","University Student","Dutch","","English","No I do not wear glasses or contact lenses and do not have a vision impairment","","No","","Slightly","High school certificate for English on the level of (VWO, HAVO):,Cambridge certificate for level:","VWO","FCE","","","Definitely yes","Daily","1-3 times a week","59.699","Retirement","$250 billion","Government Spending","Redevelopment","51.93","Satisfying our needs","Scarcity","To make clear","What","","persuading others to organise their own science projects","It was difficult to operate","His feelings changed once he was in the water.","It has encouraged him to work towards his goals.","Going to the Flower Gardens was great fun. I now know much more about science but I realise there’s still a lot more to learn.","Dr. Matt Phillips","30 metres deep","Underwater research","Close to Florida","3","6.557","","convince people that his sport is both safe and easy","he tried it out just for fun","If your feet hit something in the water, it’s painful.","unwilling to try anything he hasn’t practised before","The boat travels along in the water at quite a speed, but it’s not as frightening as you’d think!","His cousin","40 miles per hour","Waterskiing on bare feet","A lake","A jump","64.433","56.416","Not difficult or easy","Bionic Reading","Neither","Bionic reading allows for more speed, but I am not sure if comprehension is also improved as you go so fast you kind of want to back a couple of times","No","No","5","3","4","4","4","FL_42","FL_44",""
"22","University Student","Dutch","","English, Spanish","No I do not wear glasses or contact lenses and do not have a vision impairment","","No","","Not at all","High school certificate for English on the level of (VWO, HAVO):","VWO","","","","Definitely yes","Daily","Daily","44.77","Housing","$250 billion","Government Spending","Housing","44.697","Satisfying our needs","Scarcity","To make clear","What","","describing the part he played in a science project","It recorded what was happening under water.","His feelings changed once he was in the water.","It has encouraged him to work towards his goals.","Going to the Flower Gardens was great fun. I now know much more about science but I realise there’s still a lot more to learn.","Dr. Matt Phillips","30 metres deep","Underwater research","In the Gulf of Mexico","3","15.306","","suggest the best ways to begin learning his sport","he was persuaded by friends to have a go.","If your feet hit something in the water, it’s painful.","unwilling to try anything he hasn’t practised before","It’s a fantastic water sport to watch – it’s just a shame more people don’t enjoy going to see it.","His cousin","40 miles per hour","Water-skiing barefoot","A lake","A side slide","51.402","48.796","Easy","Bionic Reading","Bionic Reading","Helps me to read faster and stay more concentrated in the flow","No","I now know what bionic reading is and it was fun","4","5","2","5","4","FL_37","","FL_40"
"21","Uni Student","Dutch","","English","Yes I currently wear glasses or contact lenses to correct a refractive error","","No","","Slightly","High school certificate for English on the level of (VWO, HAVO):","VWO","","","","Yes","1-3 times a month","1-3 times a week","77.547","Redevelopment","$20 billion","Government Spending","Manpower training","49.796","Satisfying our needs","Scarcity","To make clear","What","55.555","describing the part he played in a science project","It recorded what was happening under water.","His feelings changed once he was in the water.","It has encouraged him to work towards his goals.","Going to the Flower Gardens was great fun. I now know much more about science but I realise there’s still a lot more to learn.","Dr. Matt Phillips","30 metres deep","Underwater research","Close to Florida","5","14.457","58.344","convince people that his sport is both safe and easy","he was taught how to do it by his cousin.","If your feet hit something in the water, it’s painful.","confident that his boat drivers will keep him safe","The boat travels along in the water at quite a speed, but it’s not as frightening as you’d think!","His cousin","20 miles per hour","Water-skiing on bare feet","The sea","A jump","","","Easy","Neither","Traditional","The different fonds distracted me more than it helped me read faster","No, don't think so","-","4","5","2","3","2","FL_37","","FL_41"
"27","Master student","Dutch","","English, German, French","No I do not wear glasses or contact lenses and do not have a vision impairment","","No","","Slightly","High school certificate for English on the level of (VWO, HAVO):,Cambridge certificate for level:","VWO","C2","","","Definitely yes","Daily","Daily","35.415","Housing","An amount not given","Federal Wastefulness","Housing","47.07","Satisfying our needs","Scarcity","To make clear","What","66.405","describing the part he played in a science project","It was difficult to operate","His feelings changed once he was in the water.","It has encouraged him to work towards his goals.","Going to the Flower Gardens was great fun. I now know much more about science but I realise there’s still a lot more to learn.","Dr. Matt Phillips","30 metres deep","Underwater research","In the Gulf of Mexico","5","2.939","91.712","suggest the best ways to begin learning his sport","he was persuaded by friends to have a go.","If your feet hit something in the water, it’s painful.","unwilling to try anything he hasn’t practised before","The boat travels along in the water at quite a speed, but it’s not as frightening as you’d think!","His cousin","40 miles per hour","Water-skiing barefoot","A pond","A jump","","","Easy","Bionic Reading","Bionic Reading","I think it is quite interesting. I don't know if it actually makes people read faster, and I'm sure there will be some different between individuals, but it seems like a promising concept.","Not much, though I think I was less inclined to skim over the text first in the bionic reading condition.","I kind of messed up the first proficiency test because I figured I could return to the text. Also, I had to guess on some of the questions during the conditions as I was unable to retain that much information in such a short timespan (I think this is my own personal issue).","4","4","3","4","4","FL_42","FL_43",""
"23","University Student","Else, namely","German","Russian, English","No I do not wear glasses or contact lenses and do not have a vision impairment","","No","","Not at all","Other, namely:","","","","Toefl ibt","Definitely yes","Daily","1-3 times a week","48.737","Retirement","An amount not given","Government Spending","Education","40.078","Satisfying our needs","Scarcity","To make clear","How","","describing the part he played in a science project","It was difficult to operate","His feelings changed once he was in the water.","It has encouraged him to work towards his goals.","Going to the Flower Gardens was great fun. I now know much more about science but I realise there’s still a lot more to learn.","Dr. Matt Phillips","30 metres deep","Under-water research","In the Gulf of Mexico","5","1.848","","describe what he does to get better at his sport","he was taught how to do it by his cousin.","If your feet hit something in the water, it’s painful.","unwilling to try anything he hasn’t practised before","The boat travels along in the water at quite a speed, but it’s not as frightening as you’d think!","His cousin","40 miles per hour","Waterskiing on bare feet","A lake","A jump","58.124","52.131","Easy","Neither","Traditional","I think it sounds very interesting and could be helpful once you get used to the way the text is displayed","No","","7","4","4","3","4","FL_42","FL_44",""
"23","University Student","Dutch","","English","No I do not wear glasses or contact lenses and do not have a vision impairment","","No","","Moderately","High school certificate for English on the level of (VWO, HAVO):","HAVO","","","","Yes","Less than once a month","1-3 times a month","58.881","Retirement","$20 billion","Federal Wastefulness","Redevelopment","65.006","Satisfying our needs","Scarcity","To make clear","What","71.549","describing the part he played in a science project","It recorded what was happening under water.","His feelings changed once he was in the water.","It has changed his opinion of science.","Going to the Flower Gardens was great fun. I now know much more about science but I realise there’s still a lot more to learn.","Dr. Matt Phillips","20 metres deep","Underwater research","In the Gulf of Mexico","3","12.545","71.076","describe what he does to get better at his sport","he was persuaded by friends to have a go.","If your feet hit something in the water, it’s painful.","confident that his boat drivers will keep him safe","The boat travels along in the water at quite a speed, but it’s not as frightening as you’d think!","His friend","40 miles per hour","Water-skiing barefoot","A lake","A jump","","","Easy","Bionic Reading","Bionic Reading","I think it's great for easier text. But when text gets harder to comprehend, i'm reading to fast and might have to go over a sentence twice","no","-","4","4","3","4","4","FL_42","FL_43",""
"26","Student","Else, namely","German","English","No I do not wear glasses or contact lenses and do not have a vision impairment","","Yes, namely","dyslexia","Slightly","High school certificate for English on the level of (VWO, HAVO):,Other, namely:","German A levels","","","TOEFL iBT","Yes","1-3 times a week","Less than once a month","79.446","Redevelopment","$250 billion","Government Spending","Public safety","83.413","Satisfying our needs","Scarcity","To make clear","What","","describing the part he played in a science project","It could only go so far under water.","His feelings changed once he was in the water.","It has made him a lot more interested in the sea.","Going to the Flower Gardens was great fun. I now know much more about science but I realise there’s still a lot more to learn.","Dr. Matt Phillips","30 metres deep","Underwater research","Around the Cayman islands","3","2.376","","describe what he does to get better at his sport","he tried it out just for fun","If your feet hit something in the water, it’s painful.","unwilling to try anything he hasn’t practised before","If I can fit enough practice of the sport in with my studies, I’m hoping to win a prize.","His cousin","40 miles per hour","Waterskiing barefoot","A lake","A jump","79.293","55.335","Easy","Traditional","Traditional","Distracting","nop","no","5","3","4","4","4","FL_37","","FL_40"
"25","University Student","English","","","No I do not wear glasses or contact lenses and do not have a vision impairment","","No","","Slightly","Other, namely:","","","","Native speaker","Definitely yes","Daily","Daily","59.255","Retirement","$250 billion","Government Spending","Housing","64.807","Satisfying our needs","Scarcity","To make clear","What","","describing the part he played in a science project","It recorded what was happening under water.","His feelings changed once he was in the water.","It has made him a lot more interested in the sea.","Going to the Flower Gardens was great fun. I now know much more about science but I realise there’s still a lot more to learn.","Dr. Matt Phillips","30 metres deep","Under-water research","In the Gulf of Mexico","5","2.555","","convince people that his sport is both safe and easy","he tried it out just for fun","If your feet hit something in the water, it’s painful.","unwilling to try anything he hasn’t practised before","The boat travels along in the water at quite a speed, but it’s not as frightening as you’d think!","His cousin","40 miles per hour","Water-skiing barefoot","A lake","A jump","92.932","114.455","Very easy","Neither","Traditional","I found the change in bold-font distracting","not really","Would be interested to see if there is a difference between traditional and bionic.","5","4","4","3","5","FL_42","FL_44",""
"22","Student","Dutch","","english","Yes I currently wear glasses or contact lenses to correct a refractive error","","No","","Not at all","High school certificate for English on the level of (VWO, HAVO):","VWO","","","","Definitely yes","1-3 times a week","Never","38.279","Retirement","An amount not given","Government Spending","Public safety","55.546","Paying taxes","Scarcity","To make clear","What","76.675","describing the part he played in a science project","It recorded what was happening under water.","His feelings changed once he was in the water.","It has encouraged him to work towards his goals.","Going to the Flower Gardens was great fun. I now know much more about science but I realise there’s still a lot more to learn.","Dr. Matt Phillips","30 metres deep","Underwater research","In the Gulf of Mexico","3","15.623","51.41","describe what he does to get better at his sport","he tried it out just for fun","If your feet hit something in the water, it’s painful.","confident that his boat drivers will keep him safe","The boat travels along in the water at quite a speed, but it’s not as frightening as you’d think!","His cousin","40 miles per hour","Water-skiing on bare feet","A lake","A jump","","","Very easy","Bionic Reading","Bionic Reading","It works well","No","no","6","5","4","5","4","FL_37","","FL_41"
"26","University student","Else, namely","Russian","English","Yes I currently wear glasses or contact lenses to correct a refractive error","","No","","Slightly","Other, namely:","","","","IELTS 7.5","Yes","Daily","Daily","61.687","Housing","An amount not given","Federal Taxes","Manpower training","164.943","Satisfying our needs","Scarcity","To make clear","How","","describing the part he played in a science project","It could only go so far under water.","His feelings changed once he was in the water.","It has made him a lot more interested in the sea.","Going to the Flower Gardens was great fun. I now know much more about science but I realise there’s still a lot more to learn.","Dr. Matt Phillips","20 metres deep","Underwater research","In the Gulf of Mexico","3","5.214","","suggest the best ways to begin learning his sport","he was taught how to do it by his cousin.","If your feet hit something in the water, it’s painful.","unwilling to try anything he hasn’t practised before","The boat travels along in the water at quite a speed, but it’s not as frightening as you’d think!","His cousin","20 miles per hour","Waterskiing on bare feet","A lake","A side slide","122.225","88.73","Not difficult or easy","Bionic Reading","Bionic Reading","surprisingly helpful ","no","I guess there should be a ""I don't remember"" choice... ","5","3","3","4","2","FL_42","FL_44",""
"25","Car mechanic","Else, namely","Arabic","Dutch, Somali and English","No I do not wear glasses or contact lenses and do not have a vision impairment","","No","","Not at all","High school certificate for English on the level of (VWO, HAVO):; Other namely,","VMBO","","","MBO","No","Never","Never","71.157","Education","$250 billion","Government Spending","Education","75.933","Satisfying our needs","Depression","To make clear","Why","101.38","giving advice on understanding difficult areas of science","It recorded what was happening under water.","He enjoyed it less than other parts of the trip","It has encouraged him to work towards his goals.","Going to the Flower Gardens was great fun. I now know much more about science but I realise there’s still a lot more to learn.","Dr. Matt Phillips","20 metres deep","Underwater research","West of the Bahamas","7","17.165","107.375","describe what he does to get better at his sport","he was taught how to do it by his cousin.","If your feet hit something in the water, it’s painful.","unwilling to try anything he hasn’t practised before","If I can fit enough practice of the sport in with my studies, I’m hoping to win a prize.","His aunt","30 miles per hour","Waterskiing on bare feet","The sea","A jump","","","Difficult","Bionic Reading","Bionic Reading","nice ","no","no","3","3","3","2","1","FL_37","","FL_41"
"25","University Student","Else, namely","Greek","English, French","No I do not wear glasses or contact lenses and do not have a vision impairment","","Yes, namely","I havent had a test as a kid but Im 99% sure I have dyslexia","Slightly","Other, namely:","","","","IELTS","Yes","1-3 times a month","Daily","46.378","Redevelopment","An amount not given","Federal Wastefulness","Redevelopment","74.814","Satisfying our needs","Scarcity","To arouse interest","What","","describing the part he played in a science project","It could only go so far under water.","His feelings changed once he was in the water.","It has encouraged him to work towards his goals.","Going to the Flower Gardens was great fun. I now know much more about science but I realise there’s still a lot more to learn.","Dr. Matt Phillips","30 metres deep","Underwater research","Close to Florida","3","14.815","","suggest the best ways to begin learning his sport","he was taught how to do it by his cousin.","If your feet hit something in the water, it’s painful.","unwilling to try anything he hasn’t practised before","If I can fit enough practice of the sport in with my studies, I’m hoping to win a prize.","His friend","20 miles per hour","Waterskiing barefoot","The sea","A jump","69.869","78.869","Not difficult or easy","Bionic Reading","Bionic Reading","As a person that has dyslexia (Im very sure about it haha) I stuggle to read text (in any language) and I am very slow at it. So I really appriacte the fact that with bionic reading I can read faster!","no","good job and good luck guys!","3","4","2","4","1","FL_37","","FL_40"
"22","Unversity Students","Dutch","","English","Yes I currently wear glasses or contact lenses to correct a refractive error","","No","","Slightly","High school certificate for English on the level of (VWO, HAVO):","VWO","","","","Definitely yes","Daily","1-3 times a week","43.724","Housing","$35 billion","Government Spending","Manpower training","58.073","Making a living","Scarcity","To make clear","What","56.199","describing the part he played in a science project","It recorded what was happening under water.","His main worry was losing sight of the boat.","It has made him a lot more interested in the sea.","Going to the Flower Gardens was great fun. I now know much more about science but I realise there’s still a lot more to learn.","Dr. Christopher Williams","30 metres deep","Underwater research","In the Gulf of Mexico","5","5.036","61.13","describe what he does to get better at his sport","he was taught how to do it by his cousin.","If your feet hit something in the water, it’s painful.","unwilling to try anything he hasn’t practised before","I’m one of the few people who avoids going once the weather gets a bit colder!","His cousin","30 miles per hour","Waterskiing barefoot","The sea","A jump","","","Easy","Bionic Reading","Neither","I think it is fascinating to notice the positive effects of how much faster it makes you read the text. However, I think the lay-out is a bit distracting at first (with the many differences in colors in the text), that's why I don't really have a preference. ","Not really, maybe subconsciously I only/ mostly read the bold letters.","","3","3","3","3","2","FL_42","FL_43",""
"23","University Student","Dutch","","english","No I do not wear glasses or contact lenses and do not have a vision impairment","","No","","Very","High school certificate for English on the level of (VWO, HAVO):","yes","","","","Not comfortable nor uncomfortable","Never","1-3 times a week","38.534","Retirement","$20 billion","Government Spending","Manpower training","27.341","Making a living","Scarcity","To make clear","What","","describing the part he played in a science project","It recorded what was happening under water.","His feelings changed once he was in the water.","It has made him a lot more interested in the sea.","Going to the Flower Gardens was great fun. I now know much more about science but I realise there’s still a lot more to learn.","Dr. Benjamin Mitchell","30 metres deep","Underwater research","In the Gulf of Mexico","3","10.145","","convince people that his sport is both safe and easy","he was taught how to do it by his cousin.","Although you jump higher without skis, it’s harder to land.","certain of his ability to handle difficult conditions","It’s a fantastic water sport to watch – it’s just a shame more people don’t enjoy going to see it.","His cousin","30 miles per hour","Water-skiing on bare feet","A lake","A jump","36.052","49.146","Very easy","Bionic Reading","Traditional","Looks ugly. You will read it faster I think but you tested how good I remembered the texts which is a very different thing","The info before bionic reading said to read it fast so I read faster","As I said, you tested how much I remembered but I didn't pay attention to that","4","4","0","4","3","FL_42","FL_44",""
"23","University Student","Dutch","","English","Yes I currently wear glasses or contact lenses to correct a refractive error","","No","","Not at all","High school certificate for English on the level of (VWO, HAVO):","VWO","","","","Yes","Daily","1-3 times a week","89.672","Retirement","$3 billion to $4 billion","Federal Taxes","Manpower training","50.22","Satisfying our needs","Scarcity","To make clear","What","","describing the part he played in a science project","It was difficult to operate","His feelings changed once he was in the water.","It has encouraged him to work towards his goals.","Going to the Flower Gardens was great fun. I now know much more about science but I realise there’s still a lot more to learn.","Dr. Matt Phillips","50 metres deep","Underwater research","Close to Florida","5","2.89","","suggest the best ways to begin learning his sport","he was taught how to do it by his cousin.","If your feet hit something in the water, it’s painful.","certain of his ability to handle difficult conditions","If I can fit enough practice of the sport in with my studies, I’m hoping to win a prize.","His cousin","40 miles per hour","Water-skiing barefoot","The sea","A salto","60.565","46.015","Very difficult","Neither","Neither","It's an interesting concept, I know it might help people with reading faster because of the highlighted letters.","No","I'm not good at comprehensive reading in general and I have a goldfish memory, so these questions about the texts were very difficult.","4","4","1","2","3","FL_37","","FL_40"
"21","Student","Dutch","","English, Norwegian","Yes I currently wear glasses or contact lenses to correct a refractive error","","No","","Very","High school certificate for English on the level of (VWO, HAVO):,Cambridge certificate for level:","VWO","C1","","","Definitely yes","Daily","1-3 times a week","30.939","Redevelopment","$250 billion","Government Spending","Manpower training","32.178","Satisfying our needs","Scarcity","To make clear","What","48.4","describing the part he played in a science project","It was difficult to operate","His feelings changed once he was in the water.","It has made him a lot more interested in the sea.","Going to the Flower Gardens was great fun. I now know much more about science but I realise there’s still a lot more to learn.","Dr. Benjamin Mitchell","30 metres deep","Underwater research","In the Gulf of Mexico","5","3.244","47.057","convince people that his sport is both safe and easy","he tried it out just for fun","If your feet hit something in the water, it’s painful.","certain of his ability to handle difficult conditions","It’s a fantastic water sport to watch – it’s just a shame more people don’t enjoy going to see it.","His cousin","40 miles per hour","Water-skiing barefoot","The sea","A jump","","","Not difficult or easy","Bionic Reading","Bionic Reading","I think it is an interesting concept that could help people with reading difficulties.","I had to read the normal text twice, the bionic reading text was clear enough on the first read.",".","4","3","2","3","4","FL_42","FL_43",""
"30","/","Dutch","","A bit English ","Yes I have a vision impairment, namely","Cilinderafwijking en zie niet goed in de verte","Yes, namely","Dyslexia","Not at all","High school certificate for English on the level of (VWO, HAVO):","Havo","","","","Not comfortable nor uncomfortable","1-3 times a week","Never","85.304","Retirement","An amount not given","Government Spending","Manpower training","111.097","Satisfying our needs","Scarcity","To make clear","What","122.669","describing the part he played in a science project","It recorded what was happening under water.","His feelings changed once he was in the water.","It has encouraged him to work towards his goals.","Going to the Flower Gardens was great fun. I now know much more about science but I realise there’s still a lot more to learn.","Dr. Matt Phillips","30 metres deep","Underwater research","Close to Florida","3","7.575","105.599","convince people that his sport is both safe and easy","he tried it out just for fun","If your feet hit something in the water, it’s painful.","confident that his boat drivers will keep him safe","The boat travels along in the water at quite a speed, but it’s not as frightening as you’d think!","His cousin","40 miles per hour","Water-skiing barefoot","A lake","One-legged skiing","","","Not difficult or easy","Neither","Neither","Het maakt de tekst makkelijker om te lezen. ","Bij de traditionele teksten selecteerde ik de tekst met mijn muis om beter te kunnen lezen. Dat was bij Bionic niet nodig. ","Voorkeur gaat uit naar Nederlandse teksten. Leg refractie afwijking uit ik moest nu navraag doen, dit verhoogde de drempel om mee te doen. ","6","5","3","4","4","FL_37","","FL_41"
"25","University Student","Dutch","","English, Norwegian","No I do not wear glasses or contact lenses and do not have a vision impairment","","Yes, namely","Dyslexia, 15 years ago","Not at all","High school certificate for English on the level of (VWO, HAVO):","VWO","","","","Yes","1-3 times a week","1-3 times a week","85.927","Retirement","$250 billion","Government Spending","Manpower training","117.568","Satisfying our needs","Scarcity","To make clear","What","","describing the part he played in a science project","It recorded what was happening under water.","His feelings changed once he was in the water.","It has encouraged him to work towards his goals.","Going to the Flower Gardens was great fun. I now know much more about science but I realise there’s still a lot more to learn.","Dr. Matt Phillips","30 metres deep","Underwater research","In the Gulf of Mexico","3","47.833","","describe what he does to get better at his sport","he tried it out just for fun","If your feet hit something in the water, it’s painful.","unwilling to try anything he hasn’t practised before","The boat travels along in the water at quite a speed, but it’s not as frightening as you’d think!","His cousin","40 miles per hour","Water-skiing on bare feet","A lake","A jump","123.572","132.219","Easy","Bionic Reading","Bionic Reading","-","no","-","5","5","5","5","4","FL_42","FL_44",""
"26","IT consultant","Dutch","","English","Yes I currently wear glasses or contact lenses to correct a refractive error","","No","","Slightly","High school certificate for English on the level of (VWO, HAVO):","VWO","","","","Yes","Less than once a month","1-3 times a month","23.952","Redevelopment","$20 billion","Federal Taxes","Manpower training","852.509","Satisfying our needs","Scarcity","To make clear","Why","203.939","describing the part he played in a science project","It recorded what was happening under water.","His feelings changed once he was in the water.","It has made him a lot more interested in the sea.","Going to the Flower Gardens was great fun. I now know much more about science but I realise there’s still a lot more to learn.","Dr. Christopher Williams","50 metres deep","Under-water study","In the Gulf of Mexico","3","2.564","520.402","suggest the best ways to begin learning his sport","he was taught how to do it by his cousin.","If your feet hit something in the water, it’s painful.","unwilling to try anything he hasn’t practised before","The boat travels along in the water at quite a speed, but it’s not as frightening as you’d think!","His cousin","40 miles per hour","Water-skiing barefoot","A pond","A jump","","","Not difficult or easy","Bionic Reading","Bionic Reading","Bionic reading can completely change how we read and understand things, making us better at absorbing information and learning.","For Bionic reading, I didn't have to reread the sentence as often. My attention could stay better focused on the text.","","3","4","3","2","4","FL_42","FL_43",""
"22","University student","Dutch","","English","Yes I currently wear glasses or contact lenses to correct a refractive error","","No","","Slightly","High school certificate for English on the level of (VWO, HAVO):","VWO","","","","Definitely yes","1-3 times a week","Daily","75.428","Education","$250 billion","Government Spending","Education","56.502","Satisfying our needs","Scarcity","To make clear","What","","describing the part he played in a science project","It could only go so far under water.","His feelings changed once he was in the water.","It has encouraged him to work towards his goals.","Going to the Flower Gardens was great fun. I now know much more about science but I realise there’s still a lot more to learn.","Dr. Benjamin Mitchell","30 metres deep","Underwater research","In the Gulf of Mexico","3","5.402","","describe what he does to get better at his sport","he tried it out just for fun","If your feet hit something in the water, it’s painful.","unwilling to try anything he hasn’t practised before","If I can fit enough practice of the sport in with my studies, I’m hoping to win a prize.","His cousin","30 miles per hour","Water-skiing barefoot","A lake","A side slide","97.82","65.419","Easy","Bionic Reading","Traditional","Very interesting. If it is quicker I would like it but I will have to get used to the new appearance. ","I got a bit distracted by the bold letters which is why I had a hard time remembering what was in the text. THis was different for the 'normal' text. ","The question about the cousin I think was answered above in one of the questions. or named somewhere as an answer, so it was quite easy to answer that question. ","4","4","4","4","3","FL_37","","FL_40"
"22","University Student","Dutch","","English","Yes I currently wear glasses or contact lenses to correct a refractive error","","No","","Moderately","High school certificate for English on the level of (VWO, HAVO):","VWO examen","","","","Not comfortable nor uncomfortable","Less than once a month","1-3 times a week","45.409","Retirement","$20 billion","Government Spending","Education","85.451","Making investments","Scarcity","To make clear","What","50.407","describing the part he played in a science project","It recorded what was happening under water.","His feelings changed once he was in the water.","It has encouraged him to work towards his goals.","Going to the Flower Gardens was great fun. I now know much more about science but I realise there’s still a lot more to learn.","Dr. Matt Phillips","30 metres deep","Underwater research","Close to Florida","3","58.316","93.769","describe what he does to get better at his sport","he tried it out just for fun","If your feet hit something in the water, it’s painful.","confident that his boat drivers will keep him safe","The boat travels along in the water at quite a speed, but it’s not as frightening as you’d think!","His friend","30 miles per hour","Water-skiing barefoot","A lake","A jump","","","Not difficult or easy","Traditional","Traditional","It distracted and annoyed me that some letters were bold","No, I just tried to read the words for both texts","Yeah, it felt like I am judged on my memory instead of on the way of reading.. My memory is (definitely not in the evening when I am tired) not the best, so I'm not sure whether you can draw any conclusions about the reading based on the answers to the questions. ","4","5","4","4","3","FL_42","FL_43",""
"26","University student","English","","Some Spanish, a tiny bit of Dutch","Yes I currently wear glasses or contact lenses to correct a refractive error","","No","","Moderately","Other, namely:","","","","Native language","Definitely yes","Daily","Daily","62.223","Research","$35 billion","Government Spending","Housing","41.553","Satisfying our needs","Scarcity","To make clear","Why","63.933","describing the part he played in a science project","It recorded what was happening under water.","His feelings changed once he was in the water.","It has changed his opinion of science.","Going to the Flower Gardens was great fun. I now know much more about science but I realise there’s still a lot more to learn.","Dr. Matt Phillips","30 metres deep","Underwater research","Close to Florida","3","3.515","50.94","describe what he does to get better at his sport","he was persuaded by friends to have a go.","If your feet hit something in the water, it’s painful.","certain of his ability to handle difficult conditions","If I can fit enough practice of the sport in with my studies, I’m hoping to win a prize.","His cousin","40 miles per hour","Waterskiing barefoot","A lake","A jump","","","Easy","Bionic Reading","Neither","Seemed faster to read, but I slowed down so I could actually remember some of the details. I think bionic reading would be very helpful for quickly skimming text that you don't need to remember all the details for","No","I guessed for some of the questions and if I get them right you won't know that I had no idea; it might have been nice to add some confidence meter? ","4","4","2","4","4","FL_42","FL_43",""
"31","Data Consultant","Dutch","","English and a bit of French","Yes I currently wear glasses or contact lenses to correct a refractive error","","No","","Not at all","High school certificate for English on the level of (VWO, HAVO):,Cambridge certificate for level:","VWO","B2","","","Definitely yes","1-3 times a week","Daily","44.215","Redevelopment","$3 billion to $4 billion","Government Spending","Manpower training","61.513","Paying taxes","Scarcity","To make clear","What","","describing the part he played in a science project","It recorded what was happening under water.","His feelings changed once he was in the water.","It has encouraged him to work towards his goals.","Going to the Flower Gardens was great fun. I now know much more about science but I realise there’s still a lot more to learn.","Dr. Matt Phillips","30 metres deep","Underwater research","Close to Florida","3","14.194","","describe what he does to get better at his sport","he tried it out just for fun","If your feet hit something in the water, it’s painful.","unwilling to try anything he hasn’t practised before","It’s a fantastic water sport to watch – it’s just a shame more people don’t enjoy going to see it.","His cousin","40 miles per hour","Water-skiing barefoot","A lake","A jump","68.99","66.521","Not difficult or easy","Bionic Reading","Bionic Reading","Interesting; could work","No","I feel like it was mainly my memory that was being tested","3","5","4","4","5","FL_37","","FL_40"
"23","University Student","English","","Greek","Yes I currently wear glasses or contact lenses to correct a refractive error","","No","","Not at all","Cambridge certificate for level:,Other, namely:","","IGCSE A Level","","IELTS Academic","Yes","1-3 times a month","1-3 times a week","49.127","Redevelopment","$35 billion","Government Spending","Education","45.352","Satisfying our needs","Scarcity","To make clear","What","88.8","describing the part he played in a science project","It recorded what was happening under water.","His feelings changed once he was in the water.","It has encouraged him to work towards his goals.","Going to the Flower Gardens was great fun. I now know much more about science but I realise there’s still a lot more to learn.","Dr. Jonathan Davis","40 metres deep","Under-water research","In the Gulf of Mexico","5","17.524","94.323","suggest the best ways to begin learning his sport","he tried it out just for fun","Although you jump higher without skis, it’s harder to land.","annoyed about having to ski inside a limited area","The boat travels along in the water at quite a speed, but it’s not as frightening as you’d think!","His cousin","30 miles per hour","Water-skiing barefoot","A lake","A salto","","","Not difficult or easy","Bionic Reading","Bionic Reading","It is an interesting approach of reading text that can indeed be helpful for some","The reading strategy was the same; reading the text and then proceeding to answer the questions without reading it twice","It is difficult to remember all the information from the text to answer the questions, but nice idea and approach!","4","5","2","1","3","FL_37","","FL_41"
"21","University Student","Dutch","","English, a bit of German","No I do not wear glasses or contact lenses and do not have a vision impairment","","No","","Not at all","High school certificate for English on the level of (VWO, HAVO):","VWO","","","","Yes","1-3 times a month","1-3 times a week","416.959","Housing","$250 billion","Government Spending","Housing","121.724","Satisfying our needs","Scarcity","To make clear","What","","describing the part he played in a science project","It was an expensive piece of equipment.","His feelings changed once he was in the water.","It has encouraged him to work towards his goals.","Going to the Flower Gardens was great fun. I now know much more about science but I realise there’s still a lot more to learn.","Dr. Matt Phillips","40 metres deep","Underwater research","In the Gulf of Mexico","5","10.002","","describe what he does to get better at his sport","he tried it out just for fun","If your feet hit something in the water, it’s painful.","unwilling to try anything he hasn’t practised before","The boat travels along in the water at quite a speed, but it’s not as frightening as you’d think!","His cousin","20 miles per hour","Water-skiing barefoot","A lake","A jump","77.935","86.054","Easy","Neither","Bionic Reading","It attracts you more the words, especially the longer ones.","No","Very interesting","4","4","5","3","4","FL_42","FL_44",""
"24","software developer","Dutch","","English, bit of German","Yes I currently wear glasses or contact lenses to correct a refractive error","","No","","Slightly","High school certificate for English on the level of (VWO, HAVO):,Cambridge certificate for level:,Other, namely:","VWO","One of the lower ones","","University master's degree (English studies), Bsc degree (English studies)","Definitely yes","Less than once a month","1-3 times a month","69.951","Research","An amount not given","Government Spending","Public safety","59.616","Satisfying our needs","Scarcity","To make clear","What","72.779","describing the part he played in a science project","It recorded what was happening under water.","His feelings changed once he was in the water.","It has encouraged him to work towards his goals.","Going to the Flower Gardens was great fun. I now know much more about science but I realise there’s still a lot more to learn.","Dr. Jonathan Davis","30 metres deep","Underwater research","In the Gulf of Mexico","3","117.755","83.452","suggest the best ways to begin learning his sport","he tried it out just for fun","If your feet hit something in the water, it’s painful.","unwilling to try anything he hasn’t practised before","It’s a fantastic water sport to watch – it’s just a shame more people don’t enjoy going to see it.","His friend","20 miles per hour","Water-skiing barefoot","A lake","A jump","","","Easy","Traditional","Traditional","Interesting concept, not sure if it actually helps me because first need to get more used to it","No","Wow that brought back some Language classes memories","6","5","3","4","3","FL_37","","FL_41"
"25","Social Worker","Dutch","","English","No I do not wear glasses or contact lenses and do not have a vision impairment","","No","","Not at all","Other, namely:","","","","VMBO, MBO, HBO","Definitely yes","Daily","Less than once a month","35.599","Retirement","$250 billion","Federal Taxes","Public safety","82.065","Satisfying our needs","Scarcity","To make clear","What","","describing the part he played in a science project","It recorded what was happening under water.","His feelings changed once he was in the water.","It has encouraged him to work towards his goals.","Going to the Flower Gardens was great fun. I now know much more about science but I realise there’s still a lot more to learn.","Dr. Matt Phillips","30 metres deep","Underwater research","In the Gulf of Mexico","5","264.424","","suggest the best ways to begin learning his sport","he tried it out just for fun","If your feet hit something in the water, it’s painful.","unwilling to try anything he hasn’t practised before","It’s a fantastic water sport to watch – it’s just a shame more people don’t enjoy going to see it.","His cousin","20 miles per hour","Water-skiing barefoot","A lake","A jump","64.784","70.983","Easy","Neither","Neither","It´s new to me, I´d like to know more about it","I was trying to read faster","","5","5","3","4","4","FL_42","FL_44",""
"21","student ","Dutch","","english, little bit German and a little bit Spanish","No I do not wear glasses or contact lenses and do not have a vision impairment","","No","","Not at all","High school certificate for English on the level of (VWO, HAVO):","vwo","","","","No","Less than once a month","Less than once a month","51.164","Redevelopment","$250 billion","Government Spending","Redevelopment","50.661","Satisfying our needs","Scarcity","To criticize","How","79.942","describing the part he played in a science project","It recorded what was happening under water.","His feelings changed once he was in the water.","It has made him a lot more interested in the sea.","Going to the Flower Gardens was great fun. I now know much more about science but I realise there’s still a lot more to learn.","Dr. Matt Phillips","30 metres deep","Underwater research","Close to Florida","3","5.73","57.117","suggest the best ways to begin learning his sport","he was taught how to do it by his cousin.","If you start in the wrong position, you breathe in water.","certain of his ability to handle difficult conditions","I’m one of the few people who avoids going once the weather gets a bit colder!","His cousin","40 miles per hour","Water-skiing on bare feet","A pond","A side slide","","","Difficult","Bionic Reading","Neither","I'm not sure it helps but it also makes the sentences look very complicated. I have to get used to it. ","no","no","4","4","0","4","2","FL_37","","FL_41"
"26","University Student","Dutch","","English, Turkish","No I do not wear glasses or contact lenses and do not have a vision impairment","","No","","Very","High school certificate for English on the level of (VWO, HAVO):","VWO","","","","Definitely yes","1-3 times a week","1-3 times a month","71.505","Research","$250 billion","Government Spending","Manpower training","67.301","Satisfying our needs","Scarcity","To make clear","What","60.8","describing the part he played in a science project","It recorded what was happening under water.","His feelings changed once he was in the water.","It has encouraged him to work towards his goals.","Going to the Flower Gardens was great fun. I now know much more about science but I realise there’s still a lot more to learn.","Dr. Matt Phillips","30 metres deep","Underwater research","In the Gulf of Mexico","3","8.842","59.508","convince people that his sport is both safe and easy","he tried it out just for fun","If your feet hit something in the water, it’s painful.","confident that his boat drivers will keep him safe","It’s a fantastic water sport to watch – it’s just a shame more people don’t enjoy going to see it.","His cousin","30 miles per hour","Water-skiing on bare feet","A lake","A jump","","","Not difficult or easy","Bionic Reading","Traditional","Feels like a distraction. I felt distracted from actually understanding the text, because I was occupied with reading fast.","I jumped from the words more in bionic reading, and I read faster without going back over the words. In the traditional condition, I focused more on understanding what was in the text, and so I also went back over the words to make sure I understood.","It's unclear to me whether bionic reading actually helps, or if it is a placebo / detrimental. So it's interesting research. I also noticed I didn't remember the exact wording of the title, which was interesting.","4","5","2","5","3","FL_42","FL_43",""
"25","University Student","Dutch","","English","Yes I have a vision impairment, namely","'-0.5 and -0.25 with astigmatism","No","","Not at all","High school certificate for English on the level of (VWO, HAVO):,Anglia certificate for the level of:","VWO","","Masters, C2","","Yes","1-3 times a week","1-3 times a week","115.309","Housing","An amount not given","Government Spending","Education","80.08","Satisfying our needs","Scarcity","To make clear","What","","describing the part he played in a science project","It was an expensive piece of equipment.","His feelings changed once he was in the water.","It has made him a lot more interested in the sea.","It was very interesting working with Dr Phillips and his team but I wish someone else my age had been on the trip.","Dr. Jonathan Davis","30 metres deep","Underwater research","Close to Florida","5","2.382","","convince people that his sport is both safe and easy","he tried it out just for fun","If you start in the wrong position, you breathe in water.","certain of his ability to handle difficult conditions","The boat travels along in the water at quite a speed, but it’s not as frightening as you’d think!","His cousin","40 miles per hour","Waterskiing barefoot","A lake","A jump","82.267","68.037","Easy","Bionic Reading","Traditional","I don't think much of it","I think for bionic i read faster, but since you're testing how well a text is remembered - i took more time for the first text so that i could answer the questions. With bionic reading i didn't spend the time to remember facts. ","The text are all a little shallow which makes them boring, additionally, it seems like you want to study how well a text is remembered and not how fast it's read (if you look at exams that involve reading, you can usually go back and forth to the text). ","5","2","2","2","4","FL_42","FL_44",""
